COVID19
…
Merge data

# inner join all relevant data frames
df_merged <- plyr::join_all(list(df_scaled, df_pers_clean, df_home_clean), by = 'uid', type = 'inner') %>%
  as_tibble()

df_merged 

## # A tibble: 2,821 x 18
##    date       uid   raw_ent_value[, num_cluster_val per_at_home[,1]
##    <date>     <fct>            <dbl>            <dbl>           <dbl>
##  1 2020-03-01 1628             1.46           0.759            0.606
##  2 2020-03-02 1628             1.20          -0.0526           1.65 
##  3 2020-03-03 1628             1.75           0.759            0.585
##  4 2020-03-04 1628             1.49          -0.0526           0.785
##  5 2020-03-05 1628             2.41           2.38             1.09 
##  6 2020-03-06 1628             2.79           0.759            1.24 
##  7 2020-03-07 1628             1.37          -0.0526          -0.247
##  8 2020-03-08 1628            -1.16          -0.864           -1.07 
##  9 2020-03-09 1628             1.02          -0.0526           0.421
## 10 2020-03-10 1628             2.10          -0.0526           0.790
## #  with 2,811 more rows, and 13 more variables:
## #   transition_time_value[,1] <dbl>, dis_value[,1] <dbl>,
## #   convex_hull_value[,1] <dbl>, num_gps_records <dbl>, day <int>, SDI <dbl>,
## #   PC1 <dbl>, n_pers <dbl>, a_pers <dbl>, c_pers <dbl>, e_pers <dbl>,
## #   o_pers <dbl>, state <chr>
…
Check state data

# Check number of participants per state
df_merged %>% group_by(state) %>% 
  summarise(state_n = length(unique(uid))) %>% 
  arrange(desc(state_n))

## # A tibble: 39 x 2
##    state state_n
##    <chr>   <int>
##  1 FL         20
##  2 CA         17
##  3 TX         16
##  4 OH         14
##  5 MI         13
##  6 CO         10
##  7 PA         10
##  8 IN          9
##  9 GA          7
## 10 NC          7
## #  with 29 more rows
…
