COVID19
…
Merge data

# inner join all relevant data frames
df_merged <- plyr::join_all(list(df_scaled, df_pers_clean, df_home_clean), by = 'uid', type = 'inner') %>%
  as_tibble()

df_merged 

## # A tibble: 3,814 x 18
##    date       uid   raw_ent_value[, num_cluster_val per_at_home[,1]
##    <date>     <fct>            <dbl>            <dbl>           <dbl>
##  1 2020-03-01 1628            1.42            0.781            0.567
##  2 2020-03-02 1628            1.16           -0.0333           1.59 
##  3 2020-03-03 1628            1.70            0.781            0.547
##  4 2020-03-04 1628            1.45           -0.0333           0.744
##  5 2020-03-05 1628            2.36            2.41             1.05 
##  6 2020-03-06 1628            2.74            0.781            1.19 
##  7 2020-03-07 1628            1.34           -0.0333          -0.274
##  8 2020-03-08 1628           -1.17           -0.848           -1.08 
##  9 2020-03-09 1628            0.984          -0.0333           0.385
## 10 2020-03-10 1628            2.06           -0.0333           0.749
## #  with 3,804 more rows, and 13 more variables:
## #   transition_time_value[,1] <dbl>, dis_value[,1] <dbl>,
## #   convex_hull_value[,1] <dbl>, num_gps_records <dbl>, day <int>, SDI <dbl>,
## #   PC1 <dbl>, n_pers <dbl>, a_pers <dbl>, c_pers <dbl>, e_pers <dbl>,
## #   o_pers <dbl>, state <chr>
…
Check state data

# Check number of participants per state
df_merged %>% group_by(state) %>% 
  summarise(state_n = length(unique(uid))) %>% 
  arrange(desc(state_n))

## # A tibble: 43 x 2
##    state state_n
##    <chr>   <int>
##  1 TX         33
##  2 CA         25
##  3 FL         25
##  4 OH         23
##  5 MI         19
##  6 PA         17
##  7 IN         13
##  8 CO         12
##  9 WA         12
## 10 GA         10
## #  with 33 more rows
…
